Graoh measure,r,5-point,3-point,Binary,Directional,Hybrid
degree,0.1,2.54E-05,0.0004915312042,0.0004915312042,0.005299479162,0.0002634660582
closeness,0.1,0.0037293848,0.008821735654,0.008821735654,0.3264973249,0.004100044154
clustering,0.1,0.0007329133854,0.0001705628985,0.0001705628985,0.02222178983,6.44E-05
betweenness,0.1,0.3749888976,0.7603323046,0.7603323046,0.2263884555,0.4933980207
eigenvector,0.1,0.005384765587,0.006226645733,0.006226645733,0.01558139171,0.007465410693
degree,0.2,0.0004994223905,0.001912035841,0.001912035841,0.01368026622,0.001029529932
closeness,0.2,0.1652546238,0.1736983525,0.1736983525,0.2922490659,0.1167586161
clustering,0.2,0.007367274715,0.009850841985,0.009850841985,0.005085190407,0.007089885082
betweenness,0.2,0.7574319082,0.6177913511,0.6177913511,0.01530836204,0.7521860826
eigenvector,0.2,0.01223819115,0.0208158024,0.0208158024,0.04017625206,0.02145757939
degree,0.3,0.004085750844,0.03104042193,0.03104042193,0.08009526339,0.009949595379
closeness,0.3,0.3328034615,0.5542974869,0.5542974869,0.4581099189,0.5157036524
clustering,0.3,0.1106404484,0.01643636493,0.01643636493,0.03858426952,0.02941952083
betweenness,0.3,0.5825186937,0.01984535559,0.01984535559,0.01790902449,0.2314604959
eigenvector,0.3,0.02522206179,0.08100983276,0.08100983276,0.1315504454,0.06314186308
degree,0.4,0.04731389283,0.2410887915,0.2410887915,0.29519952,0.09616536831
closeness,0.4,0.3007810763,0.3564546666,0.3564546666,0.3133398814,0.4008863628
clustering,0.4,0.05512766028,0.008716033223,0.008716033223,0.01844468119,0.02028356692
betweenness,0.4,0.08210138933,0.007646579808,0.007646579808,0.005031204569,0.01369580385
eigenvector,0.4,0.08545060844,0.2456444178,0.2456444178,0.2876786841,0.1491632467